^D:\UNIWEREK\CPP_PROGRAMY_MALINA\MROWKA\MROWKA\DEBUG\ENGINE.OBJ|D:\UNIWEREK\CPP_PROGRAMY_MALINA\MROWKA\MROWKA\DEBUG\GRA.OBJ|D:\UNIWEREK\CPP_PROGRAMY_MALINA\MROWKA\MROWKA\DEBUG\GRA_TXT.OBJ|D:\UNIWEREK\CPP_PROGRAMY_MALINA\MROWKA\MROWKA\DEBUG\KOMORKA.OBJ|D:\UNIWEREK\CPP_PROGRAMY_MALINA\MROWKA\MROWKA\DEBUG\MAIN.OBJ|D:\UNIWEREK\CPP_PROGRAMY_MALINA\MROWKA\MROWKA\DEBUG\MROWKA.OBJ|D:\UNIWEREK\CPP_PROGRAMY_MALINA\MROWKA\MROWKA\DEBUG\TABLICA.OBJ
D:\UNIWEREK\CPP_PROGRAMY_MALINA\MROWKA\DEBUG\MROWKA.EXE
D:\UNIWEREK\CPP_PROGRAMY_MALINA\MROWKA\DEBUG\MROWKA.ILK
D:\UNIWEREK\CPP_PROGRAMY_MALINA\MROWKA\DEBUG\MROWKA.PDB
